Faltungscodierer/Faltungscodierer_zustandsdiagrammahdl/simulation/qsim/Faltungscodierer.msim.vcd
$comment
	File created using the following command:
		vcd file Faltungscodierer.msim.vcd -direction
$end
$date
	Wed May 08 16:27:34 2019
$end
$version
	ModelSim Version 10.1d
$end
$timescale
	1ps
$end
$scope module Faltungscodierer_vlg_vec_tst $end
$var reg 1 ! clk $end
$var reg 1 " input1 $end
$var reg 1 # reset $end
$var wire 1 $ output1 [1] $end
$var wire 1 % output1 [0] $end
$scope module i1 $end
$var wire 1 & gnd $end
$var wire 1 ' vcc $end
$var wire 1 ( unknown $end
$var tri1 1 ) devclrn $end
$var tri1 1 * devpor $end
$var tri1 1 + devoe $end
$var wire 1 , clk~combout $end
$var wire 1 - input1~combout $end
$var wire 1 . s2~0_combout $end
$var wire 1 / reset~combout $end
$var wire 1 0 s2~regout $end
$var wire 1 1 s0~0_combout $end
$var wire 1 2 s0~regout $end
$var wire 1 3 s1~0_combout $end
$var wire 1 4 s1~regout $end
$var wire 1 5 s3~0_combout $end
$var wire 1 6 s3~regout $end
$var wire 1 7 output1[0]~6_combout $end
$var wire 1 8 output1[0]~7_combout $end
$var wire 1 9 output1[1]~8_combout $end
$var wire 1 : output1[1]~9_combout $end
$upscope $end
$upscope $end
$enddefinitions $end
#0
$dumpvars
1!
0"
0#
0%
0$
0&
1'
x(
1)
1*
1+
1,
0-
0.
0/
00
01
02
03
04
05
06
07
08
09
0:
$end
#10000
0!
0,
#20000
1!
1,
#30000
0!
0,
#40000
1!
1,
#50000
0!
0,
#60000
1!
1,
#70000
0!
0,
#80000
1!
1,
#90000
0!
0,
#100000
1"
1!
1-
1,
1:
18
13
11
1$
1%
#110000
0!
0,
#120000
0"
1!
0-
1,
0:
08
03
01
0$
0%
14
12
19
1.
11
1:
1$
#130000
0!
0,
#140000
1"
1!
1-
1,
09
18
15
0.
0:
1%
0$
04
10
08
05
13
0%
#150000
0!
0,
#160000
1!
1,
14
00
18
15
03
1%
#170000
0!
0,
#180000
1!
1,
16
04
1:
08
1$
0%
#190000
0!
0,
#200000
0"
1!
0-
1,
0:
17
05
1.
18
0$
1%
#210000
0!
0,
#220000
1!
1,
06
10
0.
19
01
1:
1$
#230000
0!
0,
#240000
1"
1!
1-
1,
09
07
13
11
0:
08
0$
0%
02
00
1:
18
1$
1%
#250000
0!
0,
#260000
0"
1!
0-
1,
0:
08
03
01
0$
0%
14
12
19
1.
11
1:
1$
#270000
0!
0,
#280000
1!
1,
04
10
0.
17
01
18
1%
#290000
0!
0,
#300000
1!
1,
02
00
09
07
0:
08
0$
0%
#310000
0!
0,
#320000
1!
1,
#330000
0!
0,
#340000
1!
1,
#350000
0!
0,
#360000
1!
1,
#370000
0!
0,
#380000
1"
1!
1-
1,
1:
18
13
11
1$
1%
#390000
0!
0,
#400000
1!
1,
14
12
15
0:
03
0$
#410000
0!
0,
#420000
0"
1!
0-
1,
19
08
05
1.
1:
0%
1$
16
04
17
09
18
0:
1%
0$
#430000
0!
0,
#440000
1!
1,
06
10
0.
19
01
1:
1$
#450000
0!
0,
#460000
1!
1,
02
00
09
07
0:
08
0$
0%
#470000
0!
0,
#480000
1!
1,
#490000
0!
0,
#500000
1"
1!
1-
1,
1:
18
13
11
1$
1%
#510000
0!
0,
#520000
1!
1,
14
12
15
0:
03
0$
#530000
0!
0,
#540000
1!
1,
16
04
1:
08
1$
0%
#550000
0!
0,
#560000
1!
1,
#570000
0!
0,
#580000
0"
1!
0-
1,
0:
17
05
1.
18
0$
1%
#590000
0!
0,
#600000
1!
1,
06
10
0.
19
01
1:
1$
#610000
1#
0!
1/
0,
02
00
09
07
0:
08
0$
0%
#620000
1!
1,
#630000
0!
0,
#640000
1!
1,
#650000
0!
0,
#660000
1"
1!
1-
1,
1:
18
13
11
1$
1%
#670000
0!
0,
#680000
1!
1,
#690000
0!
0,
#700000
1!
1,
#710000
0!
0,
#720000
1!
1,
#730000
0!
0,
#740000
1!
1,
#750000
0!
0,
#760000
1!
1,
#770000
0!
0,
#780000
1!
1,
#790000
0!
0,
#800000
0"
1!
0-
1,
0:
08
03
01
0$
0%
#810000
0!
0,
#820000
1!
1,
#830000
0!
0,
#840000
1!
1,
#850000
0!
0,
#860000
1!
1,
#870000
0!
0,
#880000
1!
1,
#890000
0!
0,
#900000
1!
1,
#910000
0!
0,
#920000
1!
1,
#930000
0!
0,
#940000
1!
1,
#950000
0!
0,
#960000
1!
1,
#970000
0!
0,
#980000
1!
1,
#990000
0!
0,
